new:173:33:void* operator new(std::size_t, void*)	16	static
gthr-default.h:229:1:int __gthread_key_delete(__gthread_key_t)	16	static
bitset:386:17:constexpr std::_Base_bitset<1>::_Base_bitset(long long unsigned int)	24	static
std_function.h:255:5:std::_Function_base::_Function_base()	16	static
std_function.h:257:5:std::_Function_base::~_Function_base()	16	static
std_function.h:263:10:bool std::_Function_base::_M_empty() const	16	static
Master.hpp:42:33:std::vector<RoboCAN::Port>::iterator RoboCAN::Master::begin()	16	static
Master.hpp:43:33:std::vector<RoboCAN::Port>::iterator RoboCAN::Master::end()	16	static
Message.hpp:27:7:RoboCAN::Message::~Message()	16	static
stl_vector.h:125:14:std::_Vector_base<unsigned char, std::allocator<unsigned char> >::_Vector_impl::~_Vector_impl()	16	static
CAN_Driver.cpp:36:9:RoboCAN::Message RoboCAN::getMessage(unsigned int)	64	static
CAN_Driver.cpp:51:21:CAN_TxHeaderTypeDef RoboCAN::messageToHalHeader(const RoboCAN::Message&)	24	static
CAN_Driver.cpp:64:6:void RoboCAN::filterSettingSlave(unsigned int)	56	static
CAN_Driver.cpp:87:6:void RoboCAN::filterSettingMaster(unsigned int, unsigned int)	56	static
CAN_Driver.cpp:110:6:void RoboCAN::sendMessage(const RoboCAN::Message&)	48	static
stl_algobase.h:198:5:constexpr const _Tp& std::min(const _Tp&, const _Tp&) [with _Tp = unsigned int]	16	static
CAN_Driver.cpp:121:6:void RoboCAN::sendData(void*, unsigned int, const RoboCAN::Message&)	64	static
Slave.hpp:18:7:RoboCAN::Slave::Slave(const RoboCAN::Slave&)	16	static
Slave.hpp:18:7:RoboCAN::Slave::~Slave()	16	static
CAN_Driver.cpp:140:6:void RoboCAN::USB_LP_CAN1_RX0_IRQHandler()	64	static
std_function.h:369:11:std::function<void(RoboCAN::Message&)>::~function()	16	static
Master.hpp:20:7:RoboCAN::Port::Port(const RoboCAN::Port&)	16	static
Master.hpp:20:7:RoboCAN::Port::~Port()	16	static
CAN_Driver.cpp:156:6:void RoboCAN::CAN1_RX1_IRQHandler()	64	static
CAN_Driver.cpp:169:6:void RoboCAN::NoSuchSlaveId_Error()	8	static
CAN_Driver.cpp:176:6:void USB_LP_CAN1_RX0_IRQHandler()	8	static
CAN_Driver.cpp:177:6:void CAN1_RX1_IRQHandler()	8	static
stl_vector.h:808:7:std::vector<_Tp, _Alloc>::iterator std::vector<_Tp, _Alloc>::begin() [with _Tp = RoboCAN::Port; _Alloc = std::allocator<RoboCAN::Port>]	24	static
stl_vector.h:826:7:std::vector<_Tp, _Alloc>::iterator std::vector<_Tp, _Alloc>::end() [with _Tp = RoboCAN::Port; _Alloc = std::allocator<RoboCAN::Port>]	24	static
bitset:874:17:constexpr std::bitset<_Nb>::bitset(long long unsigned int) [with unsigned int _Nb = 32]	32	static
stl_vector.h:675:7:std::vector<_Tp, _Alloc>::~vector() [with _Tp = unsigned char; _Alloc = std::allocator<unsigned char>]	24	static
allocator.h:153:7:std::allocator< <template-parameter-1-1> >::~allocator() [with _Tp = unsigned char]	16	static
stl_vector.h:330:7:std::_Vector_base<_Tp, _Alloc>::~_Vector_base() [with _Tp = unsigned char; _Alloc = std::allocator<unsigned char>]	16	static
stl_vector.h:915:7:std::vector<_Tp, _Alloc>::size_type std::vector<_Tp, _Alloc>::size() const [with _Tp = unsigned char; _Alloc = std::allocator<unsigned char>]	16	static
stl_vector.h:915:7:std::vector<_Tp, _Alloc>::size_type std::vector<_Tp, _Alloc>::size() const [with _Tp = RoboCAN::Slave; _Alloc = std::allocator<RoboCAN::Slave>]	16	static
stl_vector.h:1169:7:const _Tp* std::vector<_Tp, _Alloc>::data() const [with _Tp = unsigned char; _Alloc = std::allocator<unsigned char>]	16	static
stl_vector.h:808:7:std::vector<_Tp, _Alloc>::iterator std::vector<_Tp, _Alloc>::begin() [with _Tp = RoboCAN::Slave; _Alloc = std::allocator<RoboCAN::Slave>]	24	static
stl_vector.h:826:7:std::vector<_Tp, _Alloc>::iterator std::vector<_Tp, _Alloc>::end() [with _Tp = RoboCAN::Slave; _Alloc = std::allocator<RoboCAN::Slave>]	24	static
stl_iterator.h:907:5:bool __gnu_cxx::operator!=(const __gnu_cxx::__normal_iterator<_Iterator, _Container>&, const __gnu_cxx::__normal_iterator<_Iterator, _Container>&) [with _Iterator = RoboCAN::Slave*; _Container = std::vector<RoboCAN::Slave>]	24	static
stl_iterator.h:827:7:__gnu_cxx::__normal_iterator<_Iterator, _Container>& __gnu_cxx::__normal_iterator<_Iterator, _Container>::operator++() [with _Iterator = RoboCAN::Slave*; _Container = std::vector<RoboCAN::Slave>]	16	static
stl_iterator.h:819:7:__gnu_cxx::__normal_iterator<_Iterator, _Container>::reference __gnu_cxx::__normal_iterator<_Iterator, _Container>::operator*() const [with _Iterator = RoboCAN::Slave*; _Container = std::vector<RoboCAN::Slave>]	16	static
stl_vector.h:550:7:std::vector<_Tp, _Alloc>::vector(const std::vector<_Tp, _Alloc>&) [with _Tp = std::function<void(RoboCAN::Message&)>; _Alloc = std::allocator<std::function<void(RoboCAN::Message&)> >]	40	static
stl_vector.h:675:7:std::vector<_Tp, _Alloc>::~vector() [with _Tp = std::function<void(RoboCAN::Message&)>; _Alloc = std::allocator<std::function<void(RoboCAN::Message&)> >]	24	static
stl_vector.h:1040:7:std::vector<_Tp, _Alloc>::reference std::vector<_Tp, _Alloc>::operator[](std::vector<_Tp, _Alloc>::size_type) [with _Tp = std::function<void(RoboCAN::Message&)>; _Alloc = std::allocator<std::function<void(RoboCAN::Message&)> >]	16	static
std_function.h:683:5:) const [with _Res = void; _ArgTypes = {RoboCAN::Message&}]	24	static
stl_iterator.h:907:5:bool __gnu_cxx::operator!=(const __gnu_cxx::__normal_iterator<_Iterator, _Container>&, const __gnu_cxx::__normal_iterator<_Iterator, _Container>&) [with _Iterator = RoboCAN::Port*; _Container = std::vector<RoboCAN::Port>]	24	static
stl_iterator.h:827:7:__gnu_cxx::__normal_iterator<_Iterator, _Container>& __gnu_cxx::__normal_iterator<_Iterator, _Container>::operator++() [with _Iterator = RoboCAN::Port*; _Container = std::vector<RoboCAN::Port>]	16	static
stl_iterator.h:819:7:__gnu_cxx::__normal_iterator<_Iterator, _Container>::reference __gnu_cxx::__normal_iterator<_Iterator, _Container>::operator*() const [with _Iterator = RoboCAN::Port*; _Container = std::vector<RoboCAN::Port>]	16	static
std_function.h:653:5:)>&) [with _Res = void; _ArgTypes = {RoboCAN::Message&}]	16	static
stl_iterator.h:806:7:__gnu_cxx::__normal_iterator<_Iterator, _Container>::__normal_iterator(const _Iterator&) [with _Iterator = RoboCAN::Port*; _Container = std::vector<RoboCAN::Port>]	16	static
bitset:682:7:static constexpr long long unsigned int std::_Sanitize_val<_Nb, true>::_S_do_sanitize_val(long long unsigned int) [with unsigned int _Nb = 32]	24	static
stl_vector.h:273:7:std::_Vector_base<_Tp, _Alloc>::_Tp_alloc_type& std::_Vector_base<_Tp, _Alloc>::_M_get_Tp_allocator() [with _Tp = unsigned char; _Alloc = std::allocator<unsigned char>]	16	static
stl_construct.h:203:5:void std::_Destroy(_ForwardIterator, _ForwardIterator, std::allocator<_T2>&) [with _ForwardIterator = unsigned char*; _Tp = unsigned char]	24	static
new_allocator.h:89:7:__gnu_cxx::new_allocator<_Tp>::~new_allocator() [with _Tp = unsigned char]	16	static
stl_vector.h:347:7:void std::_Vector_base<_Tp, _Alloc>::_M_deallocate(std::_Vector_base<_Tp, _Alloc>::pointer, std::size_t) [with _Tp = unsigned char; _Alloc = std::allocator<unsigned char>]	24	static
stl_vector.h:1840:2:_Up* std::vector<_Tp, _Alloc>::_M_data_ptr(_Up*) const [with _Up = unsigned char; _Tp = unsigned char; _Alloc = std::allocator<unsigned char>]	16	static
stl_iterator.h:806:7:__gnu_cxx::__normal_iterator<_Iterator, _Container>::__normal_iterator(const _Iterator&) [with _Iterator = RoboCAN::Slave*; _Container = std::vector<RoboCAN::Slave>]	16	static
stl_iterator.h:871:7:const _Iterator& __gnu_cxx::__normal_iterator<_Iterator, _Container>::base() const [with _Iterator = RoboCAN::Slave*; _Container = std::vector<RoboCAN::Slave>]	16	static
stl_vector.h:915:7:std::vector<_Tp, _Alloc>::size_type std::vector<_Tp, _Alloc>::size() const [with _Tp = std::function<void(RoboCAN::Message&)>; _Alloc = std::allocator<std::function<void(RoboCAN::Message&)> >]	16	static
alloc_traits.h:97:19:static _Alloc __gnu_cxx::__alloc_traits<_Alloc, <template-parameter-1-2> >::_S_select_on_copy(const _Alloc&) [with _Alloc = std::allocator<std::function<void(RoboCAN::Message&)> >; <template-parameter-1-2> = std::function<void(RoboCAN::Message&)>]	16	static
stl_vector.h:277:7:const _Tp_alloc_type& std::_Vector_base<_Tp, _Alloc>::_M_get_Tp_allocator() const [with _Tp = std::function<void(RoboCAN::Message&)>; _Alloc = std::allocator<std::function<void(RoboCAN::Message&)> >]	16	static
allocator.h:153:7:std::allocator< <template-parameter-1-1> >::~allocator() [with _Tp = std::function<void(RoboCAN::Message&)>]	16	static
stl_vector.h:125:14:std::_Vector_base<std::function<void(RoboCAN::Message&)>, std::allocator<std::function<void(RoboCAN::Message&)> > >::_Vector_impl::~_Vector_impl()	16	static
stl_vector.h:300:7:std::_Vector_base<_Tp, _Alloc>::_Vector_base(std::size_t, const allocator_type&) [with _Tp = std::function<void(RoboCAN::Message&)>; _Alloc = std::allocator<std::function<void(RoboCAN::Message&)> >]	24	static
stl_vector.h:330:7:std::_Vector_base<_Tp, _Alloc>::~_Vector_base() [with _Tp = std::function<void(RoboCAN::Message&)>; _Alloc = std::allocator<std::function<void(RoboCAN::Message&)> >]	16	static
stl_vector.h:817:7:std::vector<_Tp, _Alloc>::const_iterator std::vector<_Tp, _Alloc>::begin() const [with _Tp = std::function<void(RoboCAN::Message&)>; _Alloc = std::allocator<std::function<void(RoboCAN::Message&)> >]	24	static
stl_vector.h:835:7:std::vector<_Tp, _Alloc>::const_iterator std::vector<_Tp, _Alloc>::end() const [with _Tp = std::function<void(RoboCAN::Message&)>; _Alloc = std::allocator<std::function<void(RoboCAN::Message&)> >]	24	static
stl_vector.h:273:7:std::_Vector_base<_Tp, _Alloc>::_Tp_alloc_type& std::_Vector_base<_Tp, _Alloc>::_M_get_Tp_allocator() [with _Tp = std::function<void(RoboCAN::Message&)>; _Alloc = std::allocator<std::function<void(RoboCAN::Message&)> >]	16	static
stl_uninitialized.h:305:5:_ForwardIterator std::__uninitialized_copy_a(_InputIterator, _InputIterator, _ForwardIterator, std::allocator<_Tp>&) [with _InputIterator = __gnu_cxx::__normal_iterator<const std::function<void(RoboCAN::Message&)>*, std::vector<std::function<void(RoboCAN::Message&)> > >; _ForwardIterator = std::function<void(RoboCAN::Message&)>*; _Tp = std::function<void(RoboCAN::Message&)>]	24	static
stl_construct.h:203:5:void std::_Destroy(_ForwardIterator, _ForwardIterator, std::allocator<_T2>&) [with _ForwardIterator = std::function<void(RoboCAN::Message&)>*; _Tp = std::function<void(RoboCAN::Message&)>]	24	static
move.h:74:5:constexpr _Tp&& std::forward(typename std::remove_reference<_Tp>::type&) [with _Tp = RoboCAN::Message&]	16	static
stl_iterator.h:871:7:const _Iterator& __gnu_cxx::__normal_iterator<_Iterator, _Container>::base() const [with _Iterator = RoboCAN::Port*; _Container = std::vector<RoboCAN::Port>]	16	static
std_function.h:564:16:)>::operator bool() const [with _Res = void; _ArgTypes = {RoboCAN::Message&}]	16	static
stl_construct.h:127:5:void std::_Destroy(_ForwardIterator, _ForwardIterator) [with _ForwardIterator = unsigned char*]	16	static
alloc_traits.h:469:7:static void std::allocator_traits<std::allocator<_CharT> >::deallocate(std::allocator_traits<std::allocator<_CharT> >::allocator_type&, std::allocator_traits<std::allocator<_CharT> >::pointer, std::allocator_traits<std::allocator<_CharT> >::size_type) [with _Tp = unsigned char]	24	static
alloc_traits.h:514:7:static std::allocator_traits<std::allocator<_CharT> >::allocator_type std::allocator_traits<std::allocator<_CharT> >::select_on_container_copy_construction(const allocator_type&) [with _Tp = std::function<void(RoboCAN::Message&)>]	16	static
allocator.h:141:7:std::allocator< <template-parameter-1-1> >::allocator(const std::allocator< <template-parameter-1-1> >&) [with _Tp = std::function<void(RoboCAN::Message&)>]	16	static
new_allocator.h:89:7:__gnu_cxx::new_allocator<_Tp>::~new_allocator() [with _Tp = std::function<void(RoboCAN::Message&)>]	16	static
stl_vector.h:133:2:std::_Vector_base<_Tp, _Alloc>::_Vector_impl::_Vector_impl(const _Tp_alloc_type&) [with _Tp = std::function<void(RoboCAN::Message&)>; _Alloc = std::allocator<std::function<void(RoboCAN::Message&)> >]	16	static
stl_vector.h:356:7:void std::_Vector_base<_Tp, _Alloc>::_M_create_storage(std::size_t) [with _Tp = std::function<void(RoboCAN::Message&)>; _Alloc = std::allocator<std::function<void(RoboCAN::Message&)> >]	16	static
stl_vector.h:347:7:void std::_Vector_base<_Tp, _Alloc>::_M_deallocate(std::_Vector_base<_Tp, _Alloc>::pointer, std::size_t) [with _Tp = std::function<void(RoboCAN::Message&)>; _Alloc = std::allocator<std::function<void(RoboCAN::Message&)> >]	24	static
stl_iterator.h:806:7:__gnu_cxx::__normal_iterator<_Iterator, _Container>::__normal_iterator(const _Iterator&) [with _Iterator = const std::function<void(RoboCAN::Message&)>*; _Container = std::vector<std::function<void(RoboCAN::Message&)> >]	16	static
stl_uninitialized.h:115:5:_ForwardIterator std::uninitialized_copy(_InputIterator, _InputIterator, _ForwardIterator) [with _InputIterator = __gnu_cxx::__normal_iterator<const std::function<void(RoboCAN::Message&)>*, std::vector<std::function<void(RoboCAN::Message&)> > >; _ForwardIterator = std::function<void(RoboCAN::Message&)>*]	32	static
stl_construct.h:127:5:void std::_Destroy(_ForwardIterator, _ForwardIterator) [with _ForwardIterator = std::function<void(RoboCAN::Message&)>*]	16	static
stl_construct.h:117:9:static void std::_Destroy_aux<true>::__destroy(_ForwardIterator, _ForwardIterator) [with _ForwardIterator = unsigned char*]	16	static
new_allocator.h:119:7:void __gnu_cxx::new_allocator<_Tp>::deallocate(__gnu_cxx::new_allocator<_Tp>::pointer, __gnu_cxx::new_allocator<_Tp>::size_type) [with _Tp = unsigned char]	24	static
new_allocator.h:83:7:__gnu_cxx::new_allocator<_Tp>::new_allocator(const __gnu_cxx::new_allocator<_Tp>&) [with _Tp = std::function<void(RoboCAN::Message&)>]	16	static
stl_vector.h:94:2:std::_Vector_base<_Tp, _Alloc>::_Vector_impl_data::_Vector_impl_data() [with _Tp = std::function<void(RoboCAN::Message&)>; _Alloc = std::allocator<std::function<void(RoboCAN::Message&)> >]	16	static
stl_vector.h:340:7:std::_Vector_base<_Tp, _Alloc>::pointer std::_Vector_base<_Tp, _Alloc>::_M_allocate(std::size_t) [with _Tp = std::function<void(RoboCAN::Message&)>; _Alloc = std::allocator<std::function<void(RoboCAN::Message&)> >]	16	static
alloc_traits.h:469:7:static void std::allocator_traits<std::allocator<_CharT> >::deallocate(std::allocator_traits<std::allocator<_CharT> >::allocator_type&, std::allocator_traits<std::allocator<_CharT> >::pointer, std::allocator_traits<std::allocator<_CharT> >::size_type) [with _Tp = std::function<void(RoboCAN::Message&)>]	24	static
stl_uninitialized.h:76:9:static _ForwardIterator std::__uninitialized_copy<_TrivialValueTypes>::__uninit_copy(_InputIterator, _InputIterator, _ForwardIterator) [with _InputIterator = __gnu_cxx::__normal_iterator<const std::function<void(RoboCAN::Message&)>*, std::vector<std::function<void(RoboCAN::Message&)> > >; _ForwardIterator = std::function<void(RoboCAN::Message&)>*; bool _TrivialValueTypes = false]	40	static
stl_construct.h:105:9:static void std::_Destroy_aux<<anonymous> >::__destroy(_ForwardIterator, _ForwardIterator) [with _ForwardIterator = std::function<void(RoboCAN::Message&)>*; bool <anonymous> = false]	16	static
alloc_traits.h:443:7:static _Tp* std::allocator_traits<std::allocator<_CharT> >::allocate(std::allocator_traits<std::allocator<_CharT> >::allocator_type&, std::allocator_traits<std::allocator<_CharT> >::size_type) [with _Tp = std::function<void(RoboCAN::Message&)>]	16	static
new_allocator.h:119:7:void __gnu_cxx::new_allocator<_Tp>::deallocate(__gnu_cxx::new_allocator<_Tp>::pointer, __gnu_cxx::new_allocator<_Tp>::size_type) [with _Tp = std::function<void(RoboCAN::Message&)>]	24	static
stl_iterator.h:907:5:bool __gnu_cxx::operator!=(const __gnu_cxx::__normal_iterator<_Iterator, _Container>&, const __gnu_cxx::__normal_iterator<_Iterator, _Container>&) [with _Iterator = const std::function<void(RoboCAN::Message&)>*; _Container = std::vector<std::function<void(RoboCAN::Message&)> >]	24	static
stl_iterator.h:827:7:__gnu_cxx::__normal_iterator<_Iterator, _Container>& __gnu_cxx::__normal_iterator<_Iterator, _Container>::operator++() [with _Iterator = const std::function<void(RoboCAN::Message&)>*; _Container = std::vector<std::function<void(RoboCAN::Message&)> >]	16	static
move.h:47:5:constexpr _Tp* std::__addressof(_Tp&) [with _Tp = std::function<void(RoboCAN::Message&)>]	16	static
stl_iterator.h:819:7:__gnu_cxx::__normal_iterator<_Iterator, _Container>::reference __gnu_cxx::__normal_iterator<_Iterator, _Container>::operator*() const [with _Iterator = const std::function<void(RoboCAN::Message&)>*; _Container = std::vector<std::function<void(RoboCAN::Message&)> >]	16	static
stl_construct.h:74:5:) [with _T1 = std::function<void(RoboCAN::Message&)>; _Args = {const std::function<void(RoboCAN::Message&)>&}]	24	static
stl_construct.h:97:5:void std::_Destroy(_Tp*) [with _Tp = std::function<void(RoboCAN::Message&)>]	16	static
new_allocator.h:102:7:_Tp* __gnu_cxx::new_allocator<_Tp>::allocate(__gnu_cxx::new_allocator<_Tp>::size_type, const void*) [with _Tp = std::function<void(RoboCAN::Message&)>]	24	static
stl_iterator.h:871:7:const _Iterator& __gnu_cxx::__normal_iterator<_Iterator, _Container>::base() const [with _Iterator = const std::function<void(RoboCAN::Message&)>*; _Container = std::vector<std::function<void(RoboCAN::Message&)> >]	16	static
move.h:74:5:constexpr _Tp&& std::forward(typename std::remove_reference<_Tp>::type&) [with _Tp = const std::function<void(RoboCAN::Message&)>&]	16	static
new_allocator.h:132:7:__gnu_cxx::new_allocator<_Tp>::size_type __gnu_cxx::new_allocator<_Tp>::max_size() const [with _Tp = std::function<void(RoboCAN::Message&)>]	16	static
