gthr-default.h:229:1:int __gthread_key_delete(__gthread_key_t)	16	static
stm32f1xx_ll_gpio.h:804:22:void LL_GPIO_SetOutputPin(GPIO_TypeDef*, uint32_t)	16	static
stm32f1xx_ll_gpio.h:833:22:void LL_GPIO_ResetOutputPin(GPIO_TypeDef*, uint32_t)	16	static
CzujnikTwojejStarej.cpp:11:1:CzujnikTwojejStarej::CzujnikTwojejStarej(int, int)	24	static
CzujnikTwojejStarej.cpp:19:6:void CzujnikTwojejStarej::wlaczDiode(RoboCAN::Message&)	16	static
CzujnikTwojejStarej.cpp:24:6:void CzujnikTwojejStarej::wylaczDiode(RoboCAN::Message&)	16	static
CzujnikTwojejStarej.cpp:29:6:void CzujnikTwojejStarej::zapiszDane(RoboCAN::Message&)	24	static
CzujnikTwojejStarej.cpp:35:5:int CzujnikTwojejStarej::dajDane(RoboCAN::Message&)	16	static
stl_vector.h:1169:7:const _Tp* std::vector<_Tp, _Alloc>::data() const [with _Tp = unsigned char; _Alloc = std::allocator<unsigned char>]	16	static
stl_vector.h:1840:2:_Up* std::vector<_Tp, _Alloc>::_M_data_ptr(_Up*) const [with _Up = unsigned char; _Tp = unsigned char; _Alloc = std::allocator<unsigned char>]	16	static
